…
Now I wish to change the order of this data and keep the ordering when
read it back in. I will explore different ordering function see if they
could achieve want we want.

``` r
# fct_reorder()
top5_reorder=top5 %>% 
  arrange(desc(country))## descending the country name
## top5 has been reordered with Cuba and Puerto Rica on the top
top5_reorder
```

    ## # A tibble: 48 x 6
    ##    country     continent  year lifeExp     pop gdpPercap
    ##    <fct>       <fct>     <int>   <dbl>   <int>     <dbl>
    ##  1 Puerto Rico Americas   1952    64.3 2227000     3082.
    ##  2 Puerto Rico Americas   1957    68.5 2260000     3907.
    ##  3 Puerto Rico Americas   1962    69.6 2448046     5108.
    ##  4 Puerto Rico Americas   1967    71.1 2648961     6929.
    ##  5 Puerto Rico Americas   1972    72.2 2847132     9123.
    ##  6 Puerto Rico Americas   1977    73.4 3080828     9771.
    ##  7 Puerto Rico Americas   1982    73.8 3279001    10331.
    ##  8 Puerto Rico Americas   1987    74.6 3444468    12281.
    ##  9 Puerto Rico Americas   1992    73.9 3585176    14642.
    ## 10 Puerto Rico Americas   1997    74.9 3759430    16999.
    ## # ... with 38 more rows
…
